NCDC introduction • rOpenSci: rnoaa
…
Search for data and get a data.frame

out <- ncdc(datasetid='NORMAL_DLY', datatypeid='dly-tmax-normal', startdate = '2010-05-01', enddate = '2010-05-10')
out$data
#> # A tibble: 25 x 5
#>    date                datatype        station           value fl_c 
#>    <chr>               <chr>           <chr>             <int> <chr>
#>  1 2010-05-01T00:00:00 DLY-TMAX-NORMAL GHCND:AQW00061705   869 C    
#>  2 2010-05-01T00:00:00 DLY-TMAX-NORMAL GHCND:CAW00064757   607 Q    
#>  3 2010-05-01T00:00:00 DLY-TMAX-NORMAL GHCND:CQC00914080   840 R    
#>  4 2010-05-01T00:00:00 DLY-TMAX-NORMAL GHCND:CQC00914801   858 R    
#>  5 2010-05-01T00:00:00 DLY-TMAX-NORMAL GHCND:FMC00914395   876 P    
#>  6 2010-05-01T00:00:00 DLY-TMAX-NORMAL GHCND:FMC00914419   885 P    
#>  7 2010-05-01T00:00:00 DLY-TMAX-NORMAL GHCND:FMC00914446   885 P    
#>  8 2010-05-01T00:00:00 DLY-TMAX-NORMAL GHCND:FMC00914482   868 R    
#>  9 2010-05-01T00:00:00 DLY-TMAX-NORMAL GHCND:FMC00914720   899 R    
#> 10 2010-05-01T00:00:00 DLY-TMAX-NORMAL GHCND:FMC00914761   897 P    
#> # … with 15 more rows
…
